{
  "db_uri": "sqlite:///test_alpha.db",
  "security": {
    "hashing": {
      "method": "pbkdf2:sha256:1000000",
      "salt_length": 1000000
    }
  },
  "features": {
    "logging": {
      "blank_uuid": "00000000-0000-0000-0000-000000000000"
    }
  },
  "flask": {
    "config": {
      "FLASK_ADMIN_SWATCH": "paper",
      "SESSION_TYPE": "filesystem"
    }
  },
  "environ": {
    "DB_USER": "",
    "DB_PASS": "",
    "DB_NAME": "",
    "DB_SOCKET_DIR": "/cloudsql",
    "CLOUD_SQL_CONNECTION_NAME": "",
    "DB_DRIVER": "psycopg2"
  }
}
