<?xml version="1.0" encoding="utf-8"?>
<!-- Generator: Adobe Illustrator 16.0.0, SVG Export Plug-In . SVG Version: 6.00 Build 0)  -->
<!DOCTYPE svg PUBLIC "-//W3C//DTD SVG 1.1//EN" "http://www.w3.org/Graphics/SVG/1.1/DTD/svg11.dtd">
<svg version="1.1" id="图层_1" xmlns="http://www.w3.org/2000/svg" xmlns:xlink="http://www.w3.org/1999/xlink" x="0px" y="0px"
	 width="792px" height="612px" viewBox="0 0 792 612" enable-background="new 0 0 792 612" xml:space="preserve">
<g>
	<path fill="#0000BC" d="M138.1,262.1H94.3v88.2H108V312.4h30.2c12.4,0,14,0.6,14,11.5V350.3h13.7v-37.7c0-9.2-7.4-13.8-14.1-13.8
		v-22.9C151.9,265.6,146.6,262.1,138.1,262.1 M133.6,298.8h-25.5v-23.1h22.1c7.3,0,8,2.2,8,6.5v12.1
		C138.2,297.7,136.4,298.8,133.6,298.8"/>
	<path fill="#0000BC" d="M543.5,350h59c7.1,0,12.9-5.8,12.9-12.9v-37.6c0-7.1-5.801-12.9-12.9-12.9h-59V350z M601.8,306.1v21.5
		c0,3.7-0.3,8.9-8.5,8.9H557v-36.2h36.9C599.7,300.2,601.8,301.3,601.8,306.1"/>
	<path fill="#0000BC" d="M644.5,336.4h33.8c4.9,0,6-3.4,6-7.101v-67.199H698V338.3c0,6-3.1,11.7-13.7,11.7h-47.5
		c-6.399,0-12-6.1-12-11.7v-76.199h13.7V330.1C638.5,334.1,639.4,336.4,644.5,336.4"/>
	<polygon fill="#0000BC" points="461.8,350.3 533.6,350.3 533.6,337.9 475.6,337.9 475.6,311 514.2,311 514.2,298.6 475.6,298.6 
		475.6,274.5 529.5,274.5 529.5,262.1 461.8,262.1 	"/>
	<path fill="#0000BC" d="M350.4,339.5v-13.8c0-9.601-4.8-13.3-13.7-13.3V300c0-7-3-12.4-14.2-12.4h-43.8v62.6h61.1
		C347.7,350.3,350.4,345.2,350.4,339.5 M318.5,312.4h-26.1v-12.3h25.5c5.1,0,5,4.6,5,6.1v2C322.9,310.2,322,312.4,318.5,312.4
		 M332.4,337.9h-40V324.8h36.3c8.7,0,8,3.2,8,8.101C336.6,335.8,335.9,337.9,332.4,337.9"/>
	<path fill="#00AEEF" d="M222.9,289.6c-9.2,0-16.6,7.4-16.6,16.601c0,9.2,7.4,16.599,16.6,16.599s16.6-7.399,16.6-16.599
		C239.5,297.1,232,289.6,222.9,289.6 M222.9,312.6c-3.5,0-6.3-2.8-6.3-6.3s2.8-6.3,6.3-6.3s6.3,2.8,6.3,6.3
		C229.2,309.7,226.4,312.6,222.9,312.6"/>
	<path fill="#0000BC" d="M261.1,313L261.1,313l10-0.4c0.6-4.199,0.6-8.6,0-12.799l-10-0.4c-0.4-2.3-1-4.5-1.8-6.6l8.5-5.4
		c-0.6-1.4-1.3-2.9-2-4.2c-1.1-2.1-2.4-4.2-3.9-6.1c-0.2-0.2-0.3-0.5-0.5-0.7l-8.9,4.7c-1.5-1.8-3.1-3.4-4.9-4.9l4.7-8.9
		c-3.4-2.6-7.1-4.8-11.1-6.4l-5.4,8.5c-1.6-0.6-3.2-1.1-4.9-1.4c-0.6-0.1-1.1-0.2-1.7-0.3l-0.4-10c-4.2-0.6-8.6-0.6-12.8,0l-0.4,10
		c-0.8,0.1-1.7,0.3-2.5,0.5c-0.5,0.1-1,0.3-1.6,0.4c-0.9,0.2-1.7,0.5-2.6,0.8l-5.4-8.5c-3,1.2-5.8,2.7-8.5,4.5
		c-0.9,0.6-1.8,1.2-2.6,1.9l4.7,8.9c-0.9,0.7-1.7,1.5-2.5,2.3c-0.8,0.8-1.6,1.7-2.3,2.5l-8.9-4.7c-2.6,3.4-4.8,7.1-6.4,11.1l8.5,5.4
		c-0.8,2.1-1.4,4.4-1.8,6.6l-10,0.4c-0.1,1.1-0.2,2.1-0.3,3.2c-0.1,1.1-0.1,2.1-0.1,3.2c0,2.1,0.1,4.3,0.4,6.399l10,0.4
		c0.4,2.3,1,4.5,1.8,6.6L177,325c0.6,1.5,1.4,3,2.1,4.4c0.9,1.699,1.9,3.3,2.9,4.8c0.4,0.6,0.9,1.3,1.3,1.899l8.9-4.699
		c1.5,1.8,3.1,3.399,4.9,4.899l-4.7,8.9c0.6,0.5,1.2,0.899,1.9,1.3c0.6,0.4,1.2,0.8,1.8,1.2c2.4,1.5,4.9,2.8,7.5,3.899l5.4-8.5
		c2.1,0.801,4.4,1.4,6.6,1.801l0.4,10c2.1,0.3,4.3,0.399,6.4,0.399c1.1,0,2.1,0,3.2-0.1c1.1-0.101,2.1-0.2,3.2-0.3l0.4-10
		c2.3-0.4,4.5-1,6.6-1.801l5.4,8.5c1-0.399,2-0.8,2.9-1.3c1.9-0.899,3.8-2,5.6-3.2c0.9-0.6,1.8-1.199,2.6-1.899l-4.7-8.9
		c1.8-1.5,3.4-3.1,4.9-4.899l8.9,4.699c2.6-3.399,4.8-7.1,6.4-11.1l-8.5-5.4c0.6-1.6,1.1-3.199,1.4-4.899
		C260.9,314.2,261,313.6,261.1,313 M204.3,288.2l0.9-0.9l0.3-0.3l0.6-0.6c0.1-0.1,0.3-0.2,0.4-0.3c0.2-0.2,0.4-0.3,0.6-0.5
		c0.1-0.1,0.3-0.2,0.4-0.3c0.2-0.1,0.4-0.3,0.6-0.4c0.2-0.1,0.3-0.2,0.5-0.3c0.2-0.1,0.4-0.3,0.6-0.4c0.2-0.1,0.3-0.2,0.5-0.3
		c0.2-0.1,0.4-0.2,0.6-0.3s0.3-0.2,0.5-0.3s0.4-0.2,0.6-0.3c0.2-0.1,0.4-0.2,0.5-0.2c0.2-0.1,0.4-0.2,0.6-0.3
		c0.2-0.1,0.4-0.1,0.5-0.2c0.2-0.1,0.4-0.2,0.7-0.2c0.2-0.1,0.4-0.1,0.6-0.2c0.2-0.1,0.5-0.1,0.7-0.2c0.2-0.1,0.4-0.1,0.6-0.2
		c0.2-0.1,0.5-0.1,0.7-0.2c0.2,0,0.4-0.1,0.6-0.1c0.2-0.1,0.5-0.1,0.7-0.1c0.2,0,0.4-0.1,0.6-0.1c0.3,0,0.5-0.1,0.8-0.1
		c0.2,0,0.4-0.1,0.6-0.1c0.3,0,0.5,0,0.8-0.1h0.5h0.9h0.5h1.4c0.4,0,0.9,0.1,1.3,0.1h0.3c0.3,0,0.6,0.1,0.9,0.1
		c0.3,0,0.5,0.1,0.7,0.1c0.1,0,0.3,0,0.4,0.1c0.4,0.1,0.7,0.2,1.1,0.2h0.1c8.4,2.1,15.2,8.4,18,16.5c0.9,2.6,1.4,5.4,1.4,8.3
		c0,5.6-1.8,10.8-4.9,15.1c-0.1,0.1-0.2,0.2-0.3,0.3s-0.2,0.3-0.3,0.4c-0.2,0.199-0.3,0.399-0.5,0.6c-0.1,0.1-0.2,0.2-0.3,0.3
		c-0.3,0.3-0.5,0.601-0.8,0.9c-4.6,4.899-11.2,7.899-18.4,7.899c-8.4,0-15.8-4-20.4-10.199c-3.2-4.301-5-9.601-5-15.3
		c0-3.6,0.7-7,2-10.1C200.2,293.1,202,290.4,204.3,288.2"/>
	<path fill="#00AEEF" d="M402.8,289.6c-9.2,0-16.6,7.4-16.6,16.601c0,9.2,7.4,16.599,16.6,16.599S419.4,315.4,419.4,306.201
		C419.4,297.1,411.9,289.6,402.8,289.6 M402.8,312.6c-3.5,0-6.3-2.8-6.3-6.3s2.8-6.3,6.3-6.3s6.3,2.8,6.3,6.3
		C409.1,309.7,406.3,312.6,402.8,312.6"/>
	<path fill="#0000BC" d="M440.7,314.7c0.1-0.601,0.2-1.101,0.3-1.7l9.7-0.4h0.399c0.301-2.1,0.4-4.3,0.4-6.399c0-1.1,0-2.1-0.1-3.2
		c-0.101-1.1-0.2-2.1-0.301-3.2H450.7l-9.601-0.4c-0.3-1.7-0.699-3.4-1.199-5c-0.2-0.5-0.4-1.1-0.5-1.6l8.5-5.4
		c-0.601-1.4-1.301-2.9-2-4.2c-1.301-2.4-2.7-4.7-4.4-6.9l-8.9,4.7c-1.5-1.8-3.1-3.4-4.899-4.9l4.7-8.9
		c-3.4-2.6-7.101-4.8-11.101-6.4l-5.399,8.5c-1.601-0.6-3.2-1.1-4.9-1.4c-0.6-0.1-1.1-0.2-1.7-0.3l-0.399-10
		c-1.101-0.1-2.101-0.2-3.2-0.3c-1.101-0.1-2.101-0.1-3.2-0.1c-2.1,0-4.3,0.1-6.4,0.4l-0.4,10c-0.8,0.1-1.6,0.3-2.4,0.5
		c-0.7,0.2-1.5,0.4-2.2,0.6c-0.7,0.2-1.4,0.4-2.1,0.7l-5.4-8.5c-3.9,1.6-7.7,3.8-11.1,6.4l4.7,8.9c-1.7,1.4-3.3,3-4.7,4.7l-0.2,0.2
		l-8.9-4.7c-1.3,1.7-2.5,3.5-3.6,5.3c-1.1,1.9-2,3.8-2.9,5.8l8.5,5.4c-0.4,1.1-0.7,2.2-1,3.3c-0.3,1.1-0.5,2.2-0.7,3.4l-5,0.2
		l-5,0.2c-0.3,2.1-0.4,4.2-0.4,6.3v0.1c0,1.199,0,2.3,0.1,3.5c0.1,1,0.2,2,0.3,2.899l10,0.4c0.2,1.1,0.4,2.3,0.7,3.399
		c0.3,1.101,0.6,2.2,1,3.301l-8.5,5.399c1.6,3.9,3.8,7.7,6.4,11.101l8.9-4.7c1.5,1.8,3.1,3.399,4.9,4.899l-4.7,8.9
		c1.4,1.1,2.8,2,4.3,2.9c2.2,1.3,4.5,2.5,6.8,3.5l5.4-8.5c2.1,0.8,4.4,1.399,6.6,1.8l0.4,10c1.1,0.1,2.1,0.2,3.2,0.3
		c1.101,0.1,2.101,0.1,3.2,0.1c2.101,0,4.3-0.1,6.4-0.399l0.399-10c2.301-0.4,4.5-1,6.601-1.8l5.399,8.5
		c3.9-1.601,7.7-3.801,11.101-6.4l-4.7-8.9c0.9-0.699,1.7-1.5,2.5-2.3s1.6-1.7,2.3-2.5l8.9,4.7c2.6-3.4,4.8-7.1,6.399-11.1l-8.5-5.4
		C439.8,318.1,440.3,316.4,440.7,314.7 M376.8,306.2c0-3.6,0.7-7,2-10.1c1.3-3,3.1-5.7,5.4-8c0.3-0.3,0.6-0.6,0.9-0.9
		c0.1-0.1,0.2-0.2,0.3-0.3c0.2-0.2,0.4-0.4,0.6-0.6c0.1-0.1,0.3-0.2,0.4-0.3c0.2-0.2,0.4-0.3,0.6-0.5c0.1-0.1,0.3-0.2,0.4-0.3
		c0.2-0.1,0.4-0.3,0.6-0.4c0.2-0.1,0.3-0.2,0.5-0.3c0.2-0.1,0.4-0.3,0.6-0.4c0.2-0.1,0.3-0.2,0.5-0.3c0.2-0.1,0.4-0.2,0.6-0.3
		c0.2-0.1,0.3-0.2,0.5-0.3c0.2-0.1,0.4-0.2,0.6-0.3c0.2-0.1,0.4-0.2,0.5-0.2c0.2-0.1,0.4-0.2,0.6-0.3c0.2-0.1,0.4-0.1,0.5-0.2
		c0.2-0.1,0.4-0.2,0.7-0.2c0.2-0.1,0.4-0.1,0.6-0.2c0.2-0.1,0.5-0.1,0.7-0.2c0.2-0.1,0.4-0.1,0.6-0.2c0.2-0.1,0.5-0.1,0.7-0.2
		c0.2,0,0.399-0.1,0.6-0.1c0.2-0.1,0.5-0.1,0.7-0.1s0.4-0.1,0.6-0.1c0.301,0,0.5-0.1,0.801-0.1c0.199,0,0.399-0.1,0.6-0.1
		c0.3,0,0.5,0,0.8-0.1h0.5h0.9h0.5h1.399c0.4,0,0.9,0.1,1.301,0.1h0.3c0.3,0,0.6,0.1,0.899,0.1c0.301,0,0.5,0.1,0.7,0.1
		c0.101,0,0.3,0,0.4,0.1c0.399,0.1,0.7,0.2,1.1,0.2h0.101c8.399,2.1,15.199,8.4,18,16.5c0.899,2.6,1.399,5.4,1.399,8.3
		c0,5.6-1.8,10.8-4.899,15.1L422.6,321.4c-0.1,0.1-0.199,0.3-0.3,0.399c-0.2,0.2-0.3,0.4-0.5,0.601c-0.1,0.1-0.2,0.199-0.3,0.3
		c-0.3,0.3-0.5,0.6-0.8,0.899c-4.601,4.9-11.2,7.9-18.4,7.9c-8.4,0-15.8-4-20.4-10.2C378.7,317.2,376.8,311.9,376.8,306.2"/>
</g>
</svg>
